{
  "creators": [
    {
      "id":1,
      "name": "zackprojectapp",
      "code": "GEN1",
      "imageCreator":"https://i.imgur.com/MeShpyQ.png",
      "imageGame":"https://play-lh.googleusercontent.com/9XsAJQ5aQeJdv2rHnLyrrKHCO7kw8c9-7MBDpFnN1uDvE5HMJ0Jn6qlLPGkswvvBVlg=s360",
      "urlDatabase": "https://raw.githubusercontent.com/zackproject/api/main/db.json",
      "visibilility": false,
      "description": "Get all pokes from first generation."
    },
    {
      "id":2,
      "name": "zackprojectapp",
      "code": "GEN2",
      "imageCreator":"https://i.imgur.com/MeShpyQ.png",
      "imageGame":"https://play-lh.googleusercontent.com/9XsAJQ5aQeJdv2rHnLyrrKHCO7kw8c9-7MBDpFnN1uDvE5HMJ0Jn6qlLPGkswvvBVlg=s360",
      "urlDatabase": "https://raw.githubusercontent.com/zackproject/api/main/db.json",
      "visibilility": true,
      "description": "Get all pokes from second generation."
    },
    {
      "id":3,
      "name": "zackprojectapp",
      "code": "GEN3",
      "imageCreator":"https://i.imgur.com/MeShpyQ.png",
      "imageGame":"https://play-lh.googleusercontent.com/9XsAJQ5aQeJdv2rHnLyrrKHCO7kw8c9-7MBDpFnN1uDvE5HMJ0Jn6qlLPGkswvvBVlg=s360",
      "urlDatabase": "https://raw.githubusercontent.com/zackproject/api/main/db.json",
      "visibilility": false,
      "description": "Get all pokes from third generation."
    },
    {
      "id":4,
      "name": "zackprojectapp",
      "code": "GEN4",
      "imageCreator":"https://i.imgur.com/MeShpyQ.png",
      "imageGame":"https://play-lh.googleusercontent.com/9XsAJQ5aQeJdv2rHnLyrrKHCO7kw8c9-7MBDpFnN1uDvE5HMJ0Jn6qlLPGkswvvBVlg=s360",
      "urlDatabase": "https://raw.githubusercontent.com/zackproject/api/main/db.json",
      "visibilility": true,
      "description": "Get all pokes from fourth generation."
    },
    {
      "id":5,
      "name": "zackprojectapp",
      "code": "GEN5",
      "imageCreator":"https://i.imgur.com/MeShpyQ.png",
      "imageGame":"https://play-lh.googleusercontent.com/9XsAJQ5aQeJdv2rHnLyrrKHCO7kw8c9-7MBDpFnN1uDvE5HMJ0Jn6qlLPGkswvvBVlg=s360",
      "urlDatabase": "https://raw.githubusercontent.com/zackproject/api/main/db.json",
      "visibilility": false,
      "description": "Get all pokes from fifth generation."
    },
    {
      "id":6,
      "name": "zackprojectapp",
      "code": "GEN6",
      "imageCreator":"https://i.imgur.com/MeShpyQ.png",
      "imageGame":"https://play-lh.googleusercontent.com/9XsAJQ5aQeJdv2rHnLyrrKHCO7kw8c9-7MBDpFnN1uDvE5HMJ0Jn6qlLPGkswvvBVlg=s360",
      "urlDatabase": "https://raw.githubusercontent.com/zackproject/api/main/db.json",
      "visibilility": true,
      "description": "Get all pokes from sixth generation."
    },
    {
      "id":7,
      "name": "zackprojectapp",
      "code": "GEN7",
      "imageCreator":"https://i.imgur.com/MeShpyQ.png",
      "imageGame":"https://play-lh.googleusercontent.com/9XsAJQ5aQeJdv2rHnLyrrKHCO7kw8c9-7MBDpFnN1uDvE5HMJ0Jn6qlLPGkswvvBVlg=s360",
      "urlDatabase": "https://raw.githubusercontent.com/zackproject/api/main/db.json",
      "visibilility": false,
      "description": "Get all pokes from seventh generation."
    },
    {
      "id":8,
      "name": "zackprojectapp",
      "code": "GEN8",
      "imageCreator":"https://i.imgur.com/MeShpyQ.png",
      "imageGame":"https://play-lh.googleusercontent.com/9XsAJQ5aQeJdv2rHnLyrrKHCO7kw8c9-7MBDpFnN1uDvE5HMJ0Jn6qlLPGkswvvBVlg=s360",
      "urlDatabase": "https://raw.githubusercontent.com/zackproject/api/main/db.json",
      "visibilility": true,
      "description": "Get all pokes from eighth generation."
    }
  ]
}
