[{
		"title": "Aviso legal",
		"desc": "1. Todos los datos personales han sido cedidos voluntariamente para aparecer en esta app y se almacenan en un repositorio git público. 2. No se admitirá ninguna información de carácter delicado como descripción, red social o imágenes no aptas para menores de edad, tampoco imágenes reales en caso de ser menor de edad. 3. Pasado el tiempo indicado el usuario será eliminado de la app. Cada usuario tiene un código único por el cual puede pedir la modificación o eliminación de sus datos, en caso de no tenerlo se considerará intento de suplantación y solo será borrado pasado el tiempo estipulado. 4. El creador se guarda el derecho de admitir, denegar o eliminar cualquier información por cualquier causa."
	},
	{
		"title": "Evento Manga Barcelona",
		"desc": "Encuéntrame en el  salón del manga y aparecerás de forma temporal en esta app. A través de un juego se decidirá el tiempo (desde 1 día a 365 días). Más info en mi Twitter"
	},
		{
		"title": "Twitter - AnimeRoyaleBot",
		"desc":"Gana el Battle Royale para aparecer durante 365 días en la app. Sólo tienes que seguir a @AnimeRoyaleBot y dar like al tweet fijado. Comenzará cuando seamos una cantidad razonable de participantes. Este bot tambien hace battle royale de diferentes animes, alternaré entre esto y los animes."},
	{
		"title": "Easter Eggs - Pokehigher or Pokelower",
		"desc": "La app 'Pokehigher or Pokelower' de Play Store tiene 4 easter eggs ocultos. El primero que encuentre todos aparecerá en la app por 365 días. La 'descripción' del usuario tendrá el hashtag #4pokeastereggs para indicar quien lo encontró."
	},
	{
		"title": "Fakemon - Pokehigher or Pokelower",
		"desc": "Cualquier creador de 'fakemon' puede añadir sus criaturas en dicha app. Se le asignará un ‘código de creador’ y aparecerá en la app Anime Birthday por tiempo indefinido."
	},
	{
		"title": "Otros casos",
		"desc": "Excepcionalmente puedo ponerme en contacto con usted y ofrecerle aparecer en la app de forma limitada o indefinida."
	}
]
